1º Ano/2º Semestre/LSD/PRÁTICAS/FPGA/aula06/parte1/simulation/qsim/ShiftRegister_Demo.msim.vcd
$comment
	File created using the following command:
		vcd file ShiftRegister_Demo.msim.vcd -direction
$end
$date
	Fri Apr 22 00:30:22 2022
$end
$version
	ModelSim Version 2020.1
$end
$timescale
	1ps
$end

$scope module ShiftRegister4_vlg_vec_tst $end
$var reg 1 ! clk $end
$var reg 1 " sin $end
$var wire 1 # dataOut [3] $end
$var wire 1 $ dataOut [2] $end
$var wire 1 % dataOut [1] $end
$var wire 1 & dataOut [0] $end

$scope module i1 $end
$var wire 1 ' gnd $end
$var wire 1 ( vcc $end
$var wire 1 ) unknown $end
$var tri1 1 * devclrn $end
$var tri1 1 + devpor $end
$var tri1 1 , devoe $end
$var wire 1 - dataOut[0]~output_o $end
$var wire 1 . dataOut[1]~output_o $end
$var wire 1 / dataOut[2]~output_o $end
$var wire 1 0 dataOut[3]~output_o $end
$var wire 1 1 clk~input_o $end
$var wire 1 2 sin~input_o $end
$var wire 1 3 s_shiftReg [3] $end
$var wire 1 4 s_shiftReg [2] $end
$var wire 1 5 s_shiftReg [1] $end
$var wire 1 6 s_shiftReg [0] $end
$upscope $end
$upscope $end
$enddefinitions $end
#0
$dumpvars
0!
1"
0&
0%
0$
0#
0'
1(
x)
1*
1+
1,
0-
0.
0/
00
01
12
06
05
04
03
$end
#20000
1!
11
13
10
1#
#30000
0"
02
#40000
0!
1"
01
12
#55000
0"
02
#60000
1!
11
14
03
00
1/
1$
0#
#75000
1"
12
#80000
0!
0"
01
02
#90000
1"
12
#100000
1!
11
15
04
13
10
0/
1.
1%
0$
1#
#105000
0"
02
#110000
1"
12
#115000
0"
02
#120000
0!
1"
01
12
#125000
0"
02
#135000
1"
12
#140000
1!
11
16
05
14
1/
0.
1-
1&
0%
1$
#145000
0"
02
#160000
0!
1"
01
12
#170000
0"
02
#175000
1"
12
#180000
1!
11
06
15
1.
0-
0&
1%
#185000
0"
02
#190000
1"
12
#200000
0!
0"
01
02
#215000
1"
12
#220000
1!
0"
11
02
16
1-
1&
#235000
1"
12
#240000
0!
01
#245000
0"
02
#260000
1!
11
03
00
0#
#280000
0!
01
#295000
1"
12
#300000
1!
11
04
13
10
0/
0$
1#
#320000
0"
0!
02
01
#325000
1"
12
#335000
0"
02
#340000
1!
1"
11
12
05
14
03
00
1/
0.
0%
1$
0#
#345000
0"
02
#350000
1"
12
#355000
0"
02
#360000
0!
01
#370000
1"
12
#375000
0"
02
#380000
1!
1"
11
12
06
15
04
0/
1.
0-
0&
1%
0$
#385000
0"
02
#400000
0!
01
#405000
1"
12
#410000
0"
02
#420000
1!
1"
11
12
16
05
0.
1-
1&
0%
#425000
0"
02
#440000
0!
1"
01
12
#445000
0"
02
#450000
1"
12
#455000
0"
02
#460000
1!
1"
11
12
06
0-
0&
#475000
0"
02
#480000
0!
1"
01
12
#485000
0"
02
#490000
1"
12
#500000
1!
0"
11
02
13
10
1#
#505000
1"
12
#510000
0"
02
#515000
1"
12
#520000
0!
0"
01
02
#530000
1"
12
#540000
1!
11
14
1/
1$
#545000
0"
02
#550000
1"
12
#560000
0!
01
#575000
0"
02
#580000
1!
11
15
03
00
1.
1%
0#
#585000
1"
12
#595000
0"
02
#600000
0!
01
#615000
1"
12
#620000
1!
0"
11
02
16
04
13
10
0/
1-
1&
0$
1#
#625000
1"
12
#640000
0!
01
#660000
0"
1!
02
11
05
14
03
00
1/
0.
0%
1$
0#
#670000
1"
12
#680000
0!
0"
01
02
#690000
1"
12
#700000
1!
11
06
15
04
13
10
0/
1.
0-
0&
1%
0$
1#
#715000
0"
02
#720000
0!
1"
01
12
#740000
1!
11
16
05
14
1/
0.
1-
1&
0%
1$
#760000
0"
0!
02
01
#765000
1"
12
#780000
1!
0"
11
02
06
15
1.
0-
0&
1%
#785000
1"
12
#795000
0"
02
#800000
0!
1"
01
12
#805000
0"
02
#810000
1"
12
#815000
0"
02
#820000
1!
1"
11
12
16
03
00
1-
1&
0#
#825000
0"
02
#830000
1"
12
#835000
0"
02
#840000
0!
01
#845000
1"
12
#855000
0"
02
#860000
1!
1"
11
12
04
0/
0$
#865000
0"
02
#870000
1"
12
#875000
0"
02
#880000
0!
01
#900000
1"
1!
12
11
05
13
10
0.
0%
1#
#920000
0!
01
#930000
0"
02
#935000
1"
12
#940000
1!
11
06
14
1/
0-
0&
1$
#945000
0"
02
#950000
1"
12
#955000
0"
02
#960000
0!
01
#970000
1"
12
#975000
0"
02
#980000
1!
11
15
03
00
1.
1%
0#
#985000
1"
12
#990000
0"
02
