1º Ano/2º Semestre/LSD/PRÁTICAS/FPGA/aula3/simulation/qsim/AdderDemo.msim.vcd
$comment
	File created using the following command:
		vcd file AdderDemo.msim.vcd -direction
$end
$date
	Fri Apr 01 10:46:14 2022
$end
$version
	ModelSim Version 2020.1
$end
$timescale
	1ps
$end

$scope module Adder4_vlg_vec_tst $end
$var reg 4 ! a [3:0] $end
$var reg 4 " b [3:0] $end
$var reg 1 # cin $end
$var wire 1 $ cout $end
$var wire 1 % s [3] $end
$var wire 1 & s [2] $end
$var wire 1 ' s [1] $end
$var wire 1 ( s [0] $end

$scope module i1 $end
$var wire 1 ) gnd $end
$var wire 1 * vcc $end
$var wire 1 + unknown $end
$var tri1 1 , devclrn $end
$var tri1 1 - devpor $end
$var tri1 1 . devoe $end
$var wire 1 / s[0]~output_o $end
$var wire 1 0 s[1]~output_o $end
$var wire 1 1 s[2]~output_o $end
$var wire 1 2 s[3]~output_o $end
$var wire 1 3 cout~output_o $end
$var wire 1 4 a[0]~input_o $end
$var wire 1 5 b[0]~input_o $end
$var wire 1 6 cin~input_o $end
$var wire 1 7 bit0|s~0_combout $end
$var wire 1 8 b[1]~input_o $end
$var wire 1 9 a[1]~input_o $end
$var wire 1 : bit0|cout~0_combout $end
$var wire 1 ; bit1|s~combout $end
$var wire 1 < bit1|cout~0_combout $end
$var wire 1 = a[2]~input_o $end
$var wire 1 > b[2]~input_o $end
$var wire 1 ? bit2|s~combout $end
$var wire 1 @ bit2|cout~0_combout $end
$var wire 1 A a[3]~input_o $end
$var wire 1 B b[3]~input_o $end
$var wire 1 C bit3|s~combout $end
$var wire 1 D bit3|cout~0_combout $end
$upscope $end
$upscope $end
$enddefinitions $end
#0
$dumpvars
b0 !
b1101 "
0#
0$
1(
0'
1&
1%
0)
1*
x+
1,
1-
1.
1/
00
11
12
03
04
15
06
17
08
09
0:
0;
0<
0=
1>
1?
0@
0A
1B
1C
0D
$end
#20000
b1000 !
b1100 !
b1101 !
b1111 "
b1110 "
05
18
14
1=
1A
1@
1;
0?
1D
0C
02
13
01
10
1'
0&
1$
0%
1C
12
1%
#40000
b1111 !
b1011 !
b1010 !
b1111 "
15
04
19
0=
1<
0@
0;
1?
11
00
1@
0'
1&
0?
0C
02
01
0&
0%
1C
12
1%
#60000
b1011 "
b10 !
b1010 "
0A
05
0>
0@
0C
07
1?
11
0/
02
0%
0(
1&
0D
1C
12
03
0$
1%
#80000
b0 !
b1110 "
b1111 "
15
1>
09
1@
0<
17
0?
1;
10
01
1/
0@
1(
0&
1'
1D
0C
1?
11
02
13
1$
0%
1&
0D
1C
12
03
0$
1%
#100000
b111 "
b101 "
b10 !
19
08
0B
0C
02
0%
#120000
b1010 !
b100 "
b1000 !
05
09
1A
07
0;
1C
12
00
0/
0(
0'
1%
#140000
b1100 !
b1100 "
b1101 "
15
1B
1=
1@
17
1D
0C
0?
01
02
13
1/
1(
1$
0%
0&
1C
12
1%
#160000
b1001 "
b1011 "
b100 !
b0 !
b1010 "
0=
0A
05
18
0>
0@
0C
07
1;
10
0/
02
0%
0(
1'
0D
1C
12
03
0$
1%
#180000
b1 !
b11 !
b10 "
b0 "
b1011 !
b1111 !
08
0B
14
19
1=
1A
17
1?
11
1/
1(
1&
#200000
b1110 !
b1100 !
b1000 "
b100 !
1B
04
09
0A
07
0;
00
0/
0(
0'
#220000
b1100 "
b1110 "
b0 !
b1 !
b11 !
b110 "
14
19
0=
18
1>
0B
1<
17
0C
02
1/
1@
1(
0%
0?
01
0&
1C
12
1%
#240000
b10 "
b10 !
b0 !
04
09
0>
0<
0@
07
1;
1?
11
10
0/
0(
1'
1&
0?
0C
02
01
0&
0%
#260000
b1000 !
b0 "
b1000 "
b1001 !
08
1B
14
1A
0;
1D
17
1/
13
00
0'
1$
1(
#280000
b1001 "
b1101 !
b101 !
b1011 "
b11 "
b100 !
04
1=
0A
15
18
0B
1?
0D
1;
10
03
11
1&
0$
1'
#300000
b110 !
19
1<
0;
00
1@
0'
0?
01
0&
1C
12
1%
#320000
b10 "
b10 !
b0 "
b11 !
14
0=
05
08
0@
0<
1?
1;
10
11
1&
1'
0C
0?
01
02
0%
0&
#340000
b1011 !
b1001 !
b1101 !
09
1=
1A
0;
1?
1C
12
11
00
0'
1&
1%
#360000
b100 "
b101 !
b111 !
19
0A
1>
1@
1;
0C
0?
01
02
10
1'
0%
0&
1C
12
1%
#380000
b101 "
b110 !
b10 !
b1 "
b1010 !
b1000 !
04
09
0=
1A
15
0>
0@
0;
1D
0C
02
13
00
0'
1$
0%
0D
1C
12
03
0$
1%
#400000
b1001 "
b1101 "
b0 !
0A
1>
1B
1?
11
1&
#420000
b1 !
b101 !
b101 "
0B
14
1=
1:
1@
0C
07
0?
01
0/
02
0%
0(
0&
1;
1C
12
10
1'
1%
#440000
b100 "
b0 "
b1101 !
b1000 "
1A
05
0>
1B
0:
0@
1D
17
1?
11
1/
13
1$
1(
1&
0;
0C
02
00
0'
0%
#460000
b1111 !
b1110 !
b1001 "
b110 !
b1 "
15
0B
04
19
0A
0D
1;
10
03
0$
1'
#480000
b100 !
b0 "
b1000 "
05
1B
09
07
1C
0;
00
12
0/
0(
1%
0'
#500000
b1100 "
b1100 !
b1110 !
b100 "
19
1A
1>
0B
1@
1;
0?
01
10
1'
0&
1D
0C
02
13
1$
0%
#520000
b1010 !
b101 "
b1 "
b1000 !
b1001 "
15
0>
1B
09
0=
0@
17
1C
0;
00
12
1/
1(
1%
0'
0C
02
0%
#540000
b1011 "
b1001 !
b1 !
b11 !
b11 "
14
19
0A
18
0B
1:
1<
07
0D
03
0/
0(
0$
1;
1?
11
10
1'
1&
#560000
b1 "
b1001 "
08
1B
0;
1C
12
00
0'
1%
#600000
b111 !
b1000 "
b110 !
b100 !
b1010 "
05
18
04
09
1=
0:
1@
0?
01
0<
0&
1;
1D
0C
02
13
10
0@
1'
1$
0%
1?
11
1&
0D
1C
12
03
0$
1%
#620000
b1110 "
b1100 !
b110 "
b111 "
b101 "
1A
15
08
1>
0B
1@
17
0;
0?
01
00
1/
1(
0'
0&
1D
0C
02
13
1$
0%
#640000
b1101 !
b101 !
b1101 "
b1100 "
b1110 "
05
18
1B
14
0A
1;
10
1'
#660000
b111 !
b1010 "
b10 "
b11 "
15
0>
0B
19
1:
0@
1<
07
1?
0D
1C
0;
00
12
03
11
0/
1@
0(
1&
0$
1%
0'
1;
0C
0?
01
02
10
1'
0%
0&
1C
12
1%
#680000
b101 !
09
0;
00
0'
#700000
b100 !
b1100 !
b1 "
b101 "
b1101 "
08
1>
1B
04
1A
0<
0:
1;
1?
1D
17
1/
13
11
10
1'
1&
1$
1(
0?
0;
00
01
0&
0'
#720000
b1100 "
b100 !
b1110 "
b1010 "
b10 "
0A
05
18
0>
0B
0@
0D
07
1;
1?
11
10
0/
03
0$
0(
1'
1&
0C
02
0%
#740000
b0 !
b10 !
b11 !
b1011 !
b0 "
b100 "
08
1>
14
19
0=
1A
17
1C
12
1/
1(
1%
#760000
b101 "
b1001 !
b1000 !
b111 "
04
09
15
18
#780000
b1111 "
b1100 !
b100 !
b1110 "
b101 !
14
1=
0A
05
1B
1@
0?
01
0&
1D
0C
02
13
1$
0%
#800000
b1100 "
b100 !
04
08
07
0;
00
0/
0(
0'
#820000
b1000 "
b0 "
b0 !
b10 "
0=
18
0>
0B
0@
1;
0D
1C
12
03
10
1'
0$
1%
0C
02
0%
#840000
b10 !
b11 !
b1010 "
b111 !
b1000 "
08
1B
14
19
1=
1C
17
1?
11
1/
12
1%
1(
1&
#860000
b1111 !
b1001 "
b1101 "
b1110 !
15
1>
04
1A
1@
0?
1D
0C
02
13
01
0&
1$
0%
1C
12
1%
#880000
b101 "
b1010 !
b10 !
b100 "
b0 "
b11 !
14
0=
0A
05
0>
0B
0@
0D
03
0$
0C
02
0%
#900000
b1 !
b10 "
b110 "
18
1>
09
1?
11
1&
#920000
b1001 !
b111 "
b1011 !
b11 "
15
0>
19
1A
1:
1<
07
0?
0;
1C
12
00
01
0/
0(
0&
0'
1%
1;
1?
11
10
1'
1&
#940000
b1011 "
b1001 "
b11 !
b1000 "
0A
05
08
1B
0:
17
0;
00
1/
0<
1(
0'
1;
10
1'
0?
01
0&
#960000
b10 !
b0 !
b1100 "
b100 "
b110 "
18
1>
0B
04
09
1?
0C
07
0/
02
11
1&
0%
0(
#980000
b1000 !
b111 "
b1001 !
b11 "
b1 "
15
08
0>
14
1A
1:
0;
0?
1C
12
01
00
0'
0&
1%
1;
10
1'
