1º Ano/2º Semestre/LSD/PRÁTICAS/FPGA/aula2/Parte02/simulation/qsim/Mux2_1Demo.msim.vcd
$comment
	File created using the following command:
		vcd file Mux2_1Demo.msim.vcd -direction
$end
$date
	Wed May 11 00:51:19 2022
$end
$version
	ModelSim Version 2020.1
$end
$timescale
	1ps
$end

$scope module mux4_1_vhd_vec_tst $end
$var wire 1 ! inputs [3] $end
$var wire 1 " inputs [2] $end
$var wire 1 # inputs [1] $end
$var wire 1 $ inputs [0] $end
$var wire 1 % outputs $end
$var wire 1 & sel [1] $end
$var wire 1 ' sel [0] $end

$scope module i1 $end
$var wire 1 ( gnd $end
$var wire 1 ) vcc $end
$var wire 1 * unknown $end
$var wire 1 + devoe $end
$var wire 1 , devclrn $end
$var wire 1 - devpor $end
$var wire 1 . ww_devoe $end
$var wire 1 / ww_devclrn $end
$var wire 1 0 ww_devpor $end
$var wire 1 1 ww_sel [1] $end
$var wire 1 2 ww_sel [0] $end
$var wire 1 3 ww_inputs [3] $end
$var wire 1 4 ww_inputs [2] $end
$var wire 1 5 ww_inputs [1] $end
$var wire 1 6 ww_inputs [0] $end
$var wire 1 7 ww_outputs $end
$var wire 1 8 \outputs~output_o\ $end
$var wire 1 9 \sel[1]~input_o\ $end
$var wire 1 : \inputs[1]~input_o\ $end
$var wire 1 ; \sel[0]~input_o\ $end
$var wire 1 < \inputs[0]~input_o\ $end
$var wire 1 = \outputs~0_combout\ $end
$var wire 1 > \inputs[3]~input_o\ $end
$var wire 1 ? \inputs[2]~input_o\ $end
$var wire 1 @ \outputs~1_combout\ $end
$upscope $end
$upscope $end
$enddefinitions $end
#0
$dumpvars
0%
0(
1)
x*
1+
1,
1-
1.
1/
10
07
08
09
0:
1;
0<
0=
1>
0?
0@
1!
0"
0#
0$
0&
1'
01
12
13
04
05
06
$end
#40000
1&
0!
1"
1#
1$
11
16
15
14
03
0>
1?
1:
1<
19
1=
1@
0@
18
17
08
1%
07
0%
#80000
1!
0"
04
13
1>
0?
1@
18
17
1%
#120000
0!
1"
0#
05
14
03
0>
1?
0:
0@
08
07
0%
#160000
0"
0&
0'
04
02
01
09
0;
0?
1@
18
17
1%
#200000
1"
1&
14
11
19
1?
0=
0@
1@
08
07
18
0%
17
1%
#240000
0"
0&
1'
1!
04
13
12
01
09
1;
1>
0?
0@
08
07
0%
#280000
1"
0!
1#
15
14
03
0>
1?
1:
1=
1@
18
17
1%
#320000
1!
0#
1&
0'
05
13
02
11
19
0;
1>
0:
0=
#360000
0!
1#
15
03
0>
1:
#400000
0#
1'
0"
05
04
12
1;
0?
0:
0@
1=
08
07
0%
#440000
0'
1"
1!
0$
02
06
14
13
1>
1?
0<
0;
0=
1@
18
17
1%
#480000
1'
12
1;
1=
#520000
0"
0&
04
01
09
0?
0=
0@
08
07
0%
#560000
1&
1$
1#
11
16
15
1:
1<
19
1=
1@
18
17
1%
#600000
0&
1"
0!
01
14
03
0>
1?
09
#640000
1!
0#
0'
05
13
02
0;
1>
0:
#680000
1#
1'
0$
06
15
12
1;
1:
0<
#720000
1$
0!
1&
16
03
11
19
0>
1<
0@
08
07
0%
#760000
0&
0#
0'
0"
02
01
05
04
0?
0:
09
0;
1@
18
17
1%
#800000
1'
1"
12
14
1?
1;
0=
0@
08
07
0%
#840000
1&
0$
1!
11
06
13
1>
0<
19
1=
1@
18
17
1%
#880000
0&
0'
02
01
09
0;
0=
0@
08
07
0%
#920000
1&
1$
0!
1#
11
16
15
03
0>
1:
1<
19
1@
18
17
1%
#960000
0&
1!
0#
1'
12
01
05
13
1>
0:
09
1;
0@
08
07
0%
