1º Ano/1º Semestre/ISD/Exames/3º Exame Pratico 2022/50458/simulation/qsim/ISDSim2.msim.vcd
$comment
	File created using the following command:
		vcd file ISDSim2.msim.vcd -direction
$end
$date
	Thu Jan 27 10:57:43 2022
$end
$version
	ModelSim Version 2020.1
$end
$timescale
	1ps
$end

$scope module MEF_vlg_vec_tst $end
$var reg 1 ! CLK $end
$var reg 1 " CLR $end
$var reg 1 # inputX $end
$var wire 1 $ Q0 $end
$var wire 1 % Q1 $end

$scope module i1 $end
$var wire 1 & gnd $end
$var wire 1 ' vcc $end
$var wire 1 ( unknown $end
$var tri1 1 ) devclrn $end
$var tri1 1 * devpor $end
$var tri1 1 + devoe $end
$var wire 1 , Q0~output_o $end
$var wire 1 - Q1~output_o $end
$var wire 1 . CLK~input_o $end
$var wire 1 / inst~0_combout $end
$var wire 1 0 CLR~input_o $end
$var wire 1 1 inst~q $end
$var wire 1 2 inputX~input_o $end
$var wire 1 3 inst7~0_combout $end
$var wire 1 4 inst1~q $end
$upscope $end
$upscope $end
$enddefinitions $end
#0
$dumpvars
0!
1"
0#
0$
0%
0&
1'
x(
1)
1*
1+
0,
0-
0.
1/
10
01
02
13
04
$end
#20000
1!
1.
14
11
1,
1-
1%
1$
0/
#40000
0!
0.
#60000
1!
1.
01
0,
0$
03
1/
#80000
0!
0.
#100000
1!
1.
04
11
1,
0-
0%
1$
0/
#120000
0!
0.
#140000
1!
1.
01
0,
0$
13
1/
#160000
1#
0!
12
0.
03
#180000
1!
1.
11
1,
1$
13
0/
#200000
0!
0.
#220000
1!
1.
14
01
0,
1-
1%
0$
1/
#240000
0!
0.
#260000
1!
1.
11
1,
1$
03
0/
#280000
0!
0.
#300000
1!
1.
04
01
0,
0-
0%
0$
1/
#320000
0#
0!
02
0.
13
#340000
1!
1.
14
11
1,
1-
1%
1$
0/
#360000
0!
0.
#380000
1!
1.
01
0,
0$
03
1/
#400000
0!
0.
#420000
1!
1.
04
11
1,
0-
0%
1$
0/
#440000
0!
0.
#460000
1!
1.
01
0,
0$
13
1/
#480000
1#
0!
12
0.
03
#500000
1!
1.
11
1,
1$
13
0/
#520000
0!
0.
#540000
1!
1.
14
01
0,
1-
1%
0$
1/
#560000
0!
0.
#580000
1!
1.
11
1,
1$
03
0/
#600000
0!
0.
#620000
1!
1.
04
01
0,
0-
0%
0$
1/
#640000
0#
0!
02
0.
13
#660000
1!
1.
14
11
1,
1-
1%
1$
0/
#680000
0!
0.
#700000
1!
1.
01
0,
0$
03
1/
#720000
0!
0.
#740000
1!
1.
04
11
1,
0-
0%
1$
0/
#760000
0!
0.
#780000
1!
1.
01
0,
0$
13
1/
#800000
1#
0!
12
0.
03
#820000
1!
1.
11
1,
1$
13
0/
#840000
0!
0.
#860000
1!
1.
14
01
0,
1-
1%
0$
1/
#880000
0!
0.
#900000
1!
1.
11
1,
1$
03
0/
#920000
0!
0.
#940000
1!
1.
04
01
0,
0-
0%
0$
1/
#960000
0#
0!
02
0.
13
#980000
1!
1.
14
11
1,
1-
1%
1$
0/
