1º Ano/2º Semestre/LSD/PRÁTICAS/FPGA/aula04/parte3/simulation/qsim/Counter_Demo.msim.vcd
$comment
	File created using the following command:
		vcd file Counter_Demo.msim.vcd -direction
$end
$date
	Fri Apr 08 11:27:28 2022
$end
$version
	ModelSim Version 2020.1
$end
$timescale
	1ps
$end

$scope module CounterUpDown4_vlg_vec_tst $end
$var reg 1 ! clk $end
$var reg 1 " reset $end
$var reg 1 # upDown $end
$var wire 1 $ count [3] $end
$var wire 1 % count [2] $end
$var wire 1 & count [1] $end
$var wire 1 ' count [0] $end

$scope module i1 $end
$var wire 1 ( gnd $end
$var wire 1 ) vcc $end
$var wire 1 * unknown $end
$var tri1 1 + devclrn $end
$var tri1 1 , devpor $end
$var tri1 1 - devoe $end
$var wire 1 . count[0]~output_o $end
$var wire 1 / count[1]~output_o $end
$var wire 1 0 count[2]~output_o $end
$var wire 1 1 count[3]~output_o $end
$var wire 1 2 clk~input_o $end
$var wire 1 3 s_count[0]~11_combout $end
$var wire 1 4 reset~input_o $end
$var wire 1 5 upDown~input_o $end
$var wire 1 6 s_count[1]~4_cout $end
$var wire 1 7 s_count[1]~5_combout $end
$var wire 1 8 s_count[1]~6 $end
$var wire 1 9 s_count[2]~7_combout $end
$var wire 1 : s_count[2]~8 $end
$var wire 1 ; s_count[3]~9_combout $end
$var wire 1 < s_count [3] $end
$var wire 1 = s_count [2] $end
$var wire 1 > s_count [1] $end
$var wire 1 ? s_count [0] $end
$upscope $end
$upscope $end
$enddefinitions $end
#0
$dumpvars
0!
1"
0#
0'
0&
0%
0$
0(
1)
x*
1+
1,
1-
0.
0/
00
01
02
13
14
05
06
17
18
19
0:
1;
0?
0>
0=
0<
$end
#20000
1!
12
#40000
0!
02
#50000
1#
15
0;
09
07
#60000
1!
12
#80000
0!
02
#100000
0#
1!
05
12
1;
19
17
#120000
0!
02
#140000
1!
12
#150000
1#
15
0;
09
07
#160000
0"
0!
04
02
#180000
1!
12
1?
1.
16
1'
03
17
#200000
0#
0!
05
02
08
1;
19
07
1:
09
0;
#220000
1!
12
0?
0.
06
0'
13
18
17
0:
19
1;
#240000
0!
02
#250000
1#
15
0;
09
07
#260000
1!
12
1?
1.
16
1'
03
17
#280000
0!
02
#300000
0#
1!
05
12
08
1;
19
07
1:
09
0;
1>
0?
0.
1/
06
1&
0'
17
13
07
#320000
0!
02
#340000
1!
12
0>
1?
1.
0/
18
16
0&
1'
17
03
0:
08
19
07
1:
1;
09
0;
#360000
0!
02
#380000
1!
12
0?
0.
06
0'
13
18
17
0:
19
1;
#400000
0!
02
#420000
1!
12
1<
1=
1>
1?
1.
1/
10
11
1:
08
16
1$
1%
1&
1'
0;
09
07
03
1;
19
17
#440000
0!
02
#460000
1!
12
0?
0.
06
0'
13
07
#480000
0!
02
#500000
1!
12
0>
1?
1.
0/
18
16
0&
1'
17
03
08
09
07
19
#520000
0!
02
#540000
1!
12
0?
0.
06
0'
13
18
17
09
#560000
0!
02
#580000
1#
1!
15
12
0:
0;
19
07
1;
0=
1>
1?
1.
1/
00
16
0%
1&
1'
09
17
03
08
07
19
#600000
0!
02
#620000
1!
12
1=
0>
0?
0.
0/
10
1:
18
06
1%
0&
0'
09
17
13
0:
0;
19
07
1;
#640000
0!
02
#660000
1!
12
1?
1.
16
1'
03
17
#680000
0!
02
#700000
1!
12
1>
0?
0.
1/
08
06
1&
0'
07
13
1:
18
09
17
0:
0;
19
1;
#720000
0!
02
#740000
1!
12
1?
1.
16
1'
03
08
07
1:
09
0;
#760000
0!
02
#780000
1!
12
0<
0=
0>
0?
0.
0/
00
01
0:
18
06
0$
0%
0&
0'
1;
19
17
13
0;
09
07
#800000
0!
02
#820000
1!
12
1?
1.
16
1'
03
17
#840000
0!
02
#860000
1!
12
1>
0?
0.
1/
08
06
1&
0'
07
13
18
19
17
09
#880000
0!
02
#900000
1!
12
1?
1.
16
1'
03
08
07
19
#920000
0!
02
#940000
1!
12
1=
0>
0?
0.
0/
10
1:
18
06
1%
0&
0'
09
17
13
0:
1;
19
07
0;
#960000
0!
02
#980000
1!
12
1?
1.
16
1'
03
17
