1º Ano/1º Semestre/ISD/PRATICA/aula08/simulation/qsim/AddSubDemo.msim.vcd
$comment
	File created using the following command:
		vcd file AddSubDemo.msim.vcd -direction
$end
$date
	Thu Dec 09 09:55:50 2021
$end
$version
	ModelSim Version 2020.1
$end
$timescale
	1ps
$end

$scope module addsubdemo_vhd_vec_tst $end
$var wire 1 ! Input0 $end
$var wire 1 " Input1 $end
$var wire 1 # Input2 $end
$var wire 1 $ Input3 $end
$var wire 1 % Input4 $end
$var wire 1 & Input5 $end
$var wire 1 ' Input6 $end
$var wire 1 ( Input7 $end
$var wire 1 ) Overflow $end
$var wire 1 * Sub $end
$var wire 1 + Sum1 $end
$var wire 1 , Sum2 $end
$var wire 1 - Sum3 $end
$var wire 1 . Sum4 $end

$scope module i1 $end
$var wire 1 / gnd $end
$var wire 1 0 vcc $end
$var wire 1 1 unknown $end
$var wire 1 2 devoe $end
$var wire 1 3 devclrn $end
$var wire 1 4 devpor $end
$var wire 1 5 ww_devoe $end
$var wire 1 6 ww_devclrn $end
$var wire 1 7 ww_devpor $end
$var wire 1 8 ww_Sum1 $end
$var wire 1 9 ww_Sub $end
$var wire 1 : ww_Input0 $end
$var wire 1 ; ww_Input1 $end
$var wire 1 < ww_Input2 $end
$var wire 1 = ww_Input3 $end
$var wire 1 > ww_Input4 $end
$var wire 1 ? ww_Input5 $end
$var wire 1 @ ww_Input6 $end
$var wire 1 A ww_Input7 $end
$var wire 1 B ww_Sum2 $end
$var wire 1 C ww_Sum3 $end
$var wire 1 D ww_Sum4 $end
$var wire 1 E ww_Overflow $end
$var wire 1 F \Sum1~output_o\ $end
$var wire 1 G \Sum2~output_o\ $end
$var wire 1 H \Sum3~output_o\ $end
$var wire 1 I \Sum4~output_o\ $end
$var wire 1 J \Overflow~output_o\ $end
$var wire 1 K \Input0~input_o\ $end
$var wire 1 L \Input1~input_o\ $end
$var wire 1 M \inst|inst4|inst1~0_combout\ $end
$var wire 1 N \Sub~input_o\ $end
$var wire 1 O \inst|inst4|inst6~0_combout\ $end
$var wire 1 P \Input2~input_o\ $end
$var wire 1 Q \Input3~input_o\ $end
$var wire 1 R \inst|inst5|inst1~combout\ $end
$var wire 1 S \Input4~input_o\ $end
$var wire 1 T \Input5~input_o\ $end
$var wire 1 U \inst|inst5|inst6~0_combout\ $end
$var wire 1 V \inst|inst6|inst1~0_combout\ $end
$var wire 1 W \Input6~input_o\ $end
$var wire 1 X \Input7~input_o\ $end
$var wire 1 Y \inst|inst6|inst6~0_combout\ $end
$var wire 1 Z \inst|inst7|inst1~0_combout\ $end
$var wire 1 [ \inst|inst8~0_combout\ $end
$upscope $end
$upscope $end
$enddefinitions $end
#0
$dumpvars
0!
0"
0#
0$
0%
0&
0'
0(
0)
0*
0+
0,
0-
0.
0/
10
x1
12
13
14
15
16
17
08
09
0:
0;
0<
0=
0>
0?
0@
0A
0B
0C
0D
0E
0F
0G
0H
0I
0J
0K
0L
0M
0N
0O
0P
0Q
0R
0S
0T
0U
0V
0W
0X
0Y
0Z
0[
$end
#20000
1!
1:
1K
1M
1F
18
1+
#40000
1"
1;
1L
0M
1O
1R
0F
08
1G
0+
1B
1,
#60000
1#
1<
1P
0R
1U
1V
0G
0B
1H
0,
1C
1-
#80000
1$
1=
1Q
1R
1G
1B
1,
#100000
1%
1>
1S
0V
1Y
1Z
1[
0H
0C
1J
1I
0-
1E
1D
1)
1.
#120000
1&
1?
1T
1V
1H
1C
1-
#140000
1'
1@
1W
0Z
0[
0J
0I
0E
0D
0)
0.
#160000
1(
1A
1X
1Z
1I
1D
1.
#180000
0'
0&
0%
0$
0#
0"
0!
0@
0?
0>
0=
0<
0;
0:
0K
0L
0P
0Q
0S
0T
0W
0Z
0Y
0U
0O
0R
0V
1Z
0I
0D
1I
0H
0G
0.
1D
0C
0B
1.
0-
0,
#200000
1'
1@
1W
0Z
1[
1J
0I
1E
0D
1)
0.
#210000
1&
1?
1T
1V
1H
1C
1-
#230000
1%
1>
1S
0V
1Y
1Z
0[
0H
0C
0J
1I
0-
0E
1D
0)
1.
#250000
1$
1=
1Q
1R
1G
1B
1,
#270000
1#
1<
1P
0R
1U
1V
0G
0B
1H
0,
1C
1-
#290000
1"
1;
1L
1M
1F
18
1+
#310000
1!
1:
1K
0M
1O
1R
0F
08
1G
0+
1B
1,
#330000
0"
0#
0$
0%
0&
0'
0(
0;
0<
0=
0>
0?
0@
0A
0X
0W
0T
0S
0Q
0P
0L
1M
0O
0U
0Y
1[
0Z
0[
0V
0R
1J
1F
1E
18
0G
0H
0J
0I
1)
1+
0B
0C
0E
0D
0,
0-
0)
0.
#350000
1"
0!
1;
0:
0K
1L
#370000
0"
1#
0;
1<
1P
0L
0M
1R
1G
0F
1B
08
1,
0+
#390000
0#
1$
0<
1=
1Q
0P
#410000
0$
1%
0=
1>
1S
0Q
0R
1V
1H
0G
1C
0B
1-
0,
#430000
0%
1&
0>
1?
1T
0S
#450000
0&
1'
0?
1@
1W
0T
0V
1Z
1I
0H
1D
0C
1.
0-
#470000
0'
1(
0@
1A
1X
0W
#490000
0(
1*
0A
19
1N
0X
1O
1R
1V
0R
1U
0V
1Y
1H
1G
0Z
1C
1B
0G
1-
1,
0B
0H
0,
0C
0I
0-
0D
0.
#510000
1!
1:
1K
1M
1F
18
1+
#530000
1"
1;
1L
0M
0F
08
0+
#550000
1#
1<
1P
1R
1G
1B
1,
#570000
1$
1=
1Q
0R
0G
0B
0,
#590000
1%
1>
1S
1V
1H
1C
1-
#610000
1&
1?
1T
0V
0H
0C
0-
#630000
1'
1@
1W
1Z
1I
1D
1.
#650000
1(
1A
1X
0Z
0I
0D
0.
#670000
0'
0&
0%
0$
0#
0"
0!
0@
0?
0>
0=
0<
0;
0:
0K
0L
0P
0Q
0S
0T
0W
1Z
1[
1J
1I
1E
1D
1)
1.
#690000
1'
1@
1W
0Z
0[
0J
0I
0E
0D
0)
0.
#710000
1&
1?
1T
1V
0Y
1Z
1H
1C
1I
1-
1D
1.
#730000
1%
1>
1S
0V
1Y
0Z
0H
0C
0I
0-
0D
0.
#750000
1$
1=
1Q
1R
0U
1V
0Y
1Z
1G
1B
1H
1,
1C
1I
1-
1D
1.
#770000
1#
1<
1P
0R
1U
0V
1Y
0Z
0G
0B
0H
0,
0C
0I
0-
0D
0.
#790000
1"
1;
1L
1M
0O
1R
0U
1V
0Y
1F
1Z
18
1G
1+
1B
1H
1,
1C
1I
1-
1D
1.
#810000
1!
1:
1K
0M
1O
0R
1U
0V
1Y
0F
0Z
08
0G
0+
0B
0H
0,
0C
0I
0-
0D
0.
#830000
0"
0#
0$
0%
0&
0'
0(
0;
0<
0=
0>
0?
0@
0A
0X
0W
0T
0S
0Q
0P
0L
1M
1F
18
1+
#850000
1"
0!
1;
0:
0K
1L
0O
1R
0U
1V
0Y
1Z
1G
1B
1H
1,
1C
1I
1-
1D
1.
#870000
0"
1#
0;
1<
1P
0L
0M
1O
0R
1U
0V
1Y
1R
0Z
0G
0F
0B
08
1G
0H
0,
0+
1B
0C
0I
1,
0-
0D
0.
#890000
0#
1$
0<
1=
1Q
0P
0U
1V
0Y
1Z
1H
1C
1I
1-
1D
1.
#910000
0$
1%
0=
1>
1S
0Q
0R
1U
0V
1Y
0Z
1V
0H
0G
0C
0B
1H
0I
0-
0,
1C
0D
1-
0.
#930000
0%
1&
0>
1?
1T
0S
0Y
1Z
1I
1D
1.
#950000
0&
1'
0?
1@
1W
0T
0V
1Y
0Z
1[
1Z
0[
1J
0I
0H
1E
0D
0C
0J
1I
1)
0.
0-
0E
1D
0)
1.
#970000
0'
1(
0@
1A
1X
0W
1[
1J
1E
1)
#990000
0(
0A
0X
0Z
0[
0J
0I
0E
0D
0)
0.
