1º Ano/1º Semestre/ISD/PRATICA/aula06/simulation/qsim/DecoderDemo.msim.vcd
$comment
	File created using the following command:
		vcd file DecoderDemo.msim.vcd -direction
$end
$date
	Wed Dec 15 23:10:31 2021
$end
$version
	ModelSim Version 2020.1
$end
$timescale
	1ps
$end

$scope module decoderdemo3_vhd_vec_tst $end
$var wire 1 ! E1 $end
$var wire 1 " EN_L $end
$var wire 1 # InPort_0 $end
$var wire 1 $ InPort_1 $end
$var wire 1 % InPort_2 $end
$var wire 1 & InPort_3 $end
$var wire 1 ' OutPort_F $end

$scope module i1 $end
$var wire 1 ( gnd $end
$var wire 1 ) vcc $end
$var wire 1 * unknown $end
$var wire 1 + devoe $end
$var wire 1 , devclrn $end
$var wire 1 - devpor $end
$var wire 1 . ww_devoe $end
$var wire 1 / ww_devclrn $end
$var wire 1 0 ww_devpor $end
$var wire 1 1 ww_OutPort_F $end
$var wire 1 2 ww_InPort_3 $end
$var wire 1 3 ww_InPort_2 $end
$var wire 1 4 ww_InPort_1 $end
$var wire 1 5 ww_InPort_0 $end
$var wire 1 6 ww_E1 $end
$var wire 1 7 ww_EN_L $end
$var wire 1 8 \OutPort_F~output_o\ $end
$var wire 1 9 \InPort_3~input_o\ $end
$var wire 1 : \InPort_1~input_o\ $end
$var wire 1 ; \InPort_2~input_o\ $end
$var wire 1 < \InPort_0~input_o\ $end
$var wire 1 = \inst5~0_combout\ $end
$var wire 1 > \EN_L~input_o\ $end
$var wire 1 ? \E1~input_o\ $end
$var wire 1 @ \inst5~1_combout\ $end
$upscope $end
$upscope $end
$enddefinitions $end
#0
$dumpvars
1!
0"
0#
0$
0%
0&
0'
0(
1)
x*
1+
1,
1-
1.
1/
10
01
02
03
04
05
16
07
08
09
0:
0;
0<
0=
0>
1?
0@
$end
#40000
1#
15
1<
#80000
0#
1$
05
14
1:
0<
#120000
1#
15
1<
#160000
0#
0$
1%
05
04
13
1;
0:
0<
#200000
1#
15
1<
#240000
0#
1$
05
14
1:
0<
1=
1@
18
11
1'
#280000
1#
15
1<
#320000
0#
0$
0%
1&
05
04
03
12
19
0;
0:
0<
0=
0@
08
01
0'
#360000
1#
15
1<
1=
1@
18
11
1'
#400000
0#
1$
05
14
1:
0<
#440000
1#
15
1<
#480000
0#
0$
1%
05
04
13
1;
0:
0<
0=
0@
08
01
0'
#520000
1#
15
1<
1=
1@
18
11
1'
#560000
0#
1$
05
14
1:
0<
#600000
1#
15
1<
#640000
0#
0$
0%
0&
05
04
03
02
09
0;
0:
0<
0=
0@
08
01
0'
