1º Ano/1º Semestre/ISD/PRATICA/aula13/simulation/qsim/SeqDet1101.msim.vcd
$comment
	File created using the following command:
		vcd file SeqDet1101.msim.vcd -direction
$end
$date
	Mon Jan 24 14:48:06 2022
$end
$version
	ModelSim Version 2020.1
$end
$timescale
	1ps
$end

$scope module seqdet1101_vhd_vec_tst $end
$var wire 1 ! CLK $end
$var wire 1 " X $end
$var wire 1 # Y $end

$scope module i1 $end
$var wire 1 $ gnd $end
$var wire 1 % vcc $end
$var wire 1 & unknown $end
$var wire 1 ' devoe $end
$var wire 1 ( devclrn $end
$var wire 1 ) devpor $end
$var wire 1 * ww_devoe $end
$var wire 1 + ww_devclrn $end
$var wire 1 , ww_devpor $end
$var wire 1 - ww_Y $end
$var wire 1 . ww_X $end
$var wire 1 / ww_CLK $end
$var wire 1 0 \Y~output_o\ $end
$var wire 1 1 \X~input_o\ $end
$var wire 1 2 \CLK~input_o\ $end
$var wire 1 3 \inst16~0_combout\ $end
$var wire 1 4 \inst~q\ $end
$var wire 1 5 \inst17~combout\ $end
$var wire 1 6 \inst1~q\ $end
$var wire 1 7 \inst18~0_combout\ $end
$upscope $end
$upscope $end
$enddefinitions $end
#0
$dumpvars
0!
0"
0#
0$
1%
x&
1'
1(
1)
1*
1+
1,
0-
0.
0/
00
01
02
03
04
05
06
07
$end
#5000
1"
1.
11
#10000
1!
1/
12
13
#15000
0"
0.
01
#20000
0!
0/
02
03
#30000
1!
1/
12
13
#40000
0!
0/
02
03
#45000
1"
1.
11
#50000
0"
1!
0.
1/
12
01
13
#60000
0!
0/
02
03
#65000
1"
1.
11
#70000
1!
1/
12
13
#80000
0!
0/
02
03
#90000
1!
0"
1/
0.
01
12
13
#100000
0!
1"
0/
1.
11
02
03
#110000
1!
1/
12
13
#120000
0!
0"
0/
0.
01
02
03
#130000
1!
1/
12
13
#140000
0!
1"
0/
1.
11
02
03
#145000
0"
0.
01
#150000
1!
1/
12
13
#160000
0!
1"
0/
1.
11
02
03
#170000
1!
0"
1/
0.
01
12
13
#180000
0!
0/
02
03
#190000
1!
1/
12
13
#200000
0!
1"
0/
1.
11
02
03
#210000
1!
0"
1/
0.
01
12
13
#220000
0!
0/
02
03
#230000
1!
1/
12
13
#235000
1"
1.
11
#240000
0!
0/
02
03
#250000
1!
0"
1/
0.
01
12
13
#255000
1"
1.
11
#260000
0"
0!
0.
0/
02
01
03
#270000
1"
1!
1.
1/
12
11
13
#280000
0"
0!
0.
0/
02
01
03
#285000
1"
1.
11
#290000
1!
1/
12
13
#300000
0!
0/
02
03
#305000
0"
0.
01
#310000
1"
1!
1.
1/
12
11
13
#320000
0"
0!
0.
0/
02
01
03
#330000
1!
1/
12
13
#340000
0!
0/
02
03
#350000
1!
1"
1/
1.
11
12
13
#360000
0!
0/
02
03
#370000
1!
0"
1/
0.
01
12
13
#375000
1"
1.
11
#380000
0!
0/
02
03
#385000
0"
0.
01
#390000
1!
1/
12
13
#395000
1"
1.
11
#400000
0!
0/
02
03
#410000
1!
0"
1/
0.
01
12
13
#420000
0!
1"
0/
1.
11
02
03
#430000
1!
1/
12
13
#440000
0!
0/
02
03
#450000
1!
0"
1/
0.
01
12
13
#460000
0!
0/
02
03
#465000
1"
1.
11
#470000
0"
1!
0.
1/
12
01
13
#475000
1"
1.
11
#480000
0!
0/
02
03
#490000
1!
1/
12
13
#500000
0!
0"
0/
0.
01
02
03
#505000
1"
1.
11
#510000
0"
1!
0.
1/
12
01
13
#515000
1"
1.
11
#520000
0!
0/
02
03
#525000
0"
0.
01
#530000
1"
1!
1.
1/
12
11
13
#535000
0"
0.
01
#540000
1"
0!
1.
0/
02
11
03
#545000
0"
0.
01
#550000
1!
1/
12
13
#555000
1"
1.
11
#560000
0"
0!
0.
0/
02
01
03
#565000
1"
1.
11
#570000
1!
1/
12
13
#575000
0"
0.
01
#580000
0!
0/
02
03
#585000
1"
1.
11
#590000
1!
1/
12
13
#600000
0!
0/
02
03
#605000
0"
0.
01
#610000
1"
1!
1.
1/
12
11
13
#615000
0"
0.
01
#620000
0!
0/
02
03
#630000
1!
1"
1/
1.
11
12
13
#635000
0"
0.
01
#640000
0!
0/
02
03
#650000
1!
1/
12
13
#655000
1"
1.
11
#660000
0"
0!
0.
0/
02
01
03
#670000
1!
1/
12
13
#680000
0!
1"
0/
1.
11
02
03
#690000
1!
1/
12
13
#695000
0"
0.
01
#700000
1"
0!
1.
0/
02
11
03
#710000
0"
1!
0.
1/
12
01
13
#715000
1"
1.
11
#720000
0!
0/
02
03
#730000
1!
1/
12
13
#740000
0!
0"
0/
0.
01
02
03
#750000
1!
1/
12
13
#760000
0!
0/
02
03
#770000
1!
1/
12
13
#780000
0!
1"
0/
1.
11
02
03
#790000
1!
0"
1/
0.
01
12
13
#800000
0!
0/
02
03
#810000
1!
1/
12
13
#815000
1"
1.
11
#820000
0!
0/
02
03
#825000
0"
0.
01
#830000
1"
1!
1.
1/
12
11
13
#835000
0"
0.
01
#840000
1"
0!
1.
0/
02
11
03
#850000
1!
1/
12
13
#855000
0"
0.
01
#860000
1"
0!
1.
0/
02
11
03
#865000
0"
0.
01
#870000
1"
1!
1.
1/
12
11
13
#880000
0"
0!
0.
0/
02
01
03
#890000
1"
1!
1.
1/
12
11
13
#895000
0"
0.
01
#900000
1"
0!
1.
0/
02
11
03
#910000
1!
1/
12
13
#920000
0!
0/
02
03
#925000
0"
0.
01
#930000
1"
1!
1.
1/
12
11
13
#940000
0!
0/
02
03
#950000
1!
0"
1/
0.
01
12
13
#955000
1"
1.
11
#960000
0!
0/
02
03
#965000
0"
0.
01
#970000
1!
1/
12
13
#980000
0!
0/
02
03
#990000
1!
1/
12
13
#995000
1"
1.
11
